shower;shower_code;activity;max_date_month;max_date_day;max_solar_longitude;ra_radiant;dec_radiant;rate_zhr
Capricornids/Sagittariids;115 DCS;Jan 13-Feb 04 ;Feb ;01;312.5 ;299;-15;M
chi-Capricornids;(114 DXC);Jan 29-Feb 28; Feb ;14;324.7 ;315;-24;L
April Piscids;144 APS;Apr 20-Apr 26 ;Apr ;22;32.5;9;11;L
epsilon-Arietids;154 DEA;Apr 24-May 27 ;May ;9;48.7 ;44;21;L
May Arietids;294 DMA;May 04-Jun 06 ;May ;16;55.5 ;37;18;L
omicron-Cetids;293 DCE;May 05-Jun 02 ;May ;20;59.3 ;28;-04;M
Arietids;171 ARI;May 14-Jun 24 ;Jun;7;76.6 ;42;25;H
dzeta-Perseids;172 ZPE;May 20-Jul 05 ;Jun ;09;78.6 ;62;23;H
beta-Taurids;173 BTA;Jun 05-Jul 17 ;Jun ;28;96.7 ;86;19;M
gamma-Leonids;203 GLE;Aug 14-Sep 12 ;Aug ;25;152.2 ;155;20;L
Sextantids;221 DSX;Sep 09-Oct 09 ;Sep ;27;184.3 ;152;0;M
