<?xml version="1.0" encoding="UTF-8"?>
<kml xmlns="http://www.opengis.net/kml/2.2" xmlns:gx="http://www.google.com/kml/ext/2.2">
    <Document id="1">
        <Style id="4">
            <IconStyle id="5">
                <colorMode>normal</colorMode>
                <scale>1</scale>
                <heading>0</heading>
                <Icon id="6">
                    <href>http://maps.google.com/mapfiles/kml/paddle/wht-circle.png</href>
                </Icon>
            </IconStyle>
        </Style>
        <Style id="9">
            <IconStyle id="10">
                <colorMode>normal</colorMode>
                <scale>1</scale>
                <heading>0</heading>
                <Icon id="11">
                    <href>http://maps.google.com/mapfiles/kml/paddle/ylw-circle.png</href>
                </Icon>
            </IconStyle>
        </Style>
        <Style id="14">
            <IconStyle id="15">
                <colorMode>normal</colorMode>
                <scale>1</scale>
                <heading>0</heading>
                <Icon id="16">
                    <href>http://maps.google.com/mapfiles/kml/paddle/ylw-circle.png</href>
                </Icon>
            </IconStyle>
        </Style>
        <Style id="19">
            <IconStyle id="20">
                <colorMode>normal</colorMode>
                <scale>1</scale>
                <heading>0</heading>
                <Icon id="21">
                    <href>http://maps.google.com/mapfiles/kml/paddle/ylw-circle.png</href>
                </Icon>
            </IconStyle>
        </Style>
        <Style id="24">
            <IconStyle id="25">
                <colorMode>normal</colorMode>
                <scale>1</scale>
                <heading>0</heading>
                <Icon id="26">
                    <href>http://maps.google.com/mapfiles/kml/paddle/ylw-circle.png</href>
                </Icon>
            </IconStyle>
        </Style>
        <Style id="29">
            <IconStyle id="30">
                <colorMode>normal</colorMode>
                <scale>1</scale>
                <heading>0</heading>
                <Icon id="31">
                    <href>http://maps.google.com/mapfiles/kml/paddle/ylw-circle.png</href>
                </Icon>
            </IconStyle>
        </Style>
        <Style id="34">
            <IconStyle id="35">
                <colorMode>normal</colorMode>
                <scale>1</scale>
                <heading>0</heading>
                <Icon id="36">
                    <href>http://maps.google.com/mapfiles/kml/paddle/ylw-circle.png</href>
                </Icon>
            </IconStyle>
        </Style>
        <Style id="39">
            <IconStyle id="40">
                <colorMode>normal</colorMode>
                <scale>1</scale>
                <heading>0</heading>
                <Icon id="41">
                    <href>http://maps.google.com/mapfiles/kml/paddle/ltblu-circle.png</href>
                </Icon>
            </IconStyle>
        </Style>
        <Style id="44">
            <IconStyle id="45">
                <colorMode>normal</colorMode>
                <scale>1</scale>
                <heading>0</heading>
                <Icon id="46">
                    <href>http://maps.google.com/mapfiles/kml/paddle/ltblu-circle.png</href>
                </Icon>
            </IconStyle>
        </Style>
        <Style id="49">
            <IconStyle id="50">
                <colorMode>normal</colorMode>
                <scale>1</scale>
                <heading>0</heading>
                <Icon id="51">
                    <href>http://maps.google.com/mapfiles/kml/paddle/ltblu-circle.png</href>
                </Icon>
            </IconStyle>
        </Style>
        <Style id="54">
            <IconStyle id="55">
                <colorMode>normal</colorMode>
                <scale>1</scale>
                <heading>0</heading>
                <Icon id="56">
                    <href>http://maps.google.com/mapfiles/kml/paddle/ltblu-circle.png</href>
                </Icon>
            </IconStyle>
        </Style>
        <Style id="59">
            <IconStyle id="60">
                <colorMode>normal</colorMode>
                <scale>1</scale>
                <heading>0</heading>
                <Icon id="61">
                    <href>http://maps.google.com/mapfiles/kml/paddle/red-circle.png</href>
                </Icon>
            </IconStyle>
        </Style>
        <Style id="64">
            <IconStyle id="65">
                <colorMode>normal</colorMode>
                <scale>1</scale>
                <heading>0</heading>
                <Icon id="66">
                    <href>http://maps.google.com/mapfiles/kml/paddle/red-circle.png</href>
                </Icon>
            </IconStyle>
        </Style>
        <Style id="69">
            <IconStyle id="70">
                <colorMode>normal</colorMode>
                <scale>1</scale>
                <heading>0</heading>
                <Icon id="71">
                    <href>http://maps.google.com/mapfiles/kml/paddle/red-circle.png</href>
                </Icon>
            </IconStyle>
        </Style>
        <Style id="74">
            <IconStyle id="75">
                <colorMode>normal</colorMode>
                <scale>1</scale>
                <heading>0</heading>
                <Icon id="76">
                    <href>http://maps.google.com/mapfiles/kml/paddle/ltblu-circle.png</href>
                </Icon>
            </IconStyle>
        </Style>
        <Style id="79">
            <IconStyle id="80">
                <colorMode>normal</colorMode>
                <scale>1</scale>
                <heading>0</heading>
                <Icon id="81">
                    <href>http://maps.google.com/mapfiles/kml/paddle/red-circle.png</href>
                </Icon>
            </IconStyle>
        </Style>
        <Style id="84">
            <IconStyle id="85">
                <colorMode>normal</colorMode>
                <scale>1</scale>
                <heading>0</heading>
                <Icon id="86">
                    <href>http://maps.google.com/mapfiles/kml/paddle/ltblu-circle.png</href>
                </Icon>
            </IconStyle>
        </Style>
        <Style id="89">
            <IconStyle id="90">
                <colorMode>normal</colorMode>
                <scale>1</scale>
                <heading>0</heading>
                <Icon id="91">
                    <href>http://maps.google.com/mapfiles/kml/paddle/ltblu-circle.png</href>
                </Icon>
            </IconStyle>
        </Style>
        <Style id="94">
            <IconStyle id="95">
                <colorMode>normal</colorMode>
                <scale>1</scale>
                <heading>0</heading>
                <Icon id="96">
                    <href>http://maps.google.com/mapfiles/kml/paddle/ltblu-circle.png</href>
                </Icon>
            </IconStyle>
        </Style>
        <Style id="99">
            <IconStyle id="100">
                <colorMode>normal</colorMode>
                <scale>1</scale>
                <heading>0</heading>
                <Icon id="101">
                    <href>http://maps.google.com/mapfiles/kml/paddle/ltblu-circle.png</href>
                </Icon>
            </IconStyle>
        </Style>
        <Style id="104">
            <IconStyle id="105">
                <colorMode>normal</colorMode>
                <scale>1</scale>
                <heading>0</heading>
                <Icon id="106">
                    <href>http://maps.google.com/mapfiles/kml/paddle/ltblu-circle.png</href>
                </Icon>
            </IconStyle>
        </Style>
        <Style id="109">
            <IconStyle id="110">
                <colorMode>normal</colorMode>
                <scale>1</scale>
                <heading>0</heading>
                <Icon id="111">
                    <href>http://maps.google.com/mapfiles/kml/paddle/ltblu-circle.png</href>
                </Icon>
            </IconStyle>
        </Style>
        <Style id="114">
            <IconStyle id="115">
                <colorMode>normal</colorMode>
                <scale>1</scale>
                <heading>0</heading>
                <Icon id="116">
                    <href>http://maps.google.com/mapfiles/kml/paddle/ltblu-circle.png</href>
                </Icon>
            </IconStyle>
        </Style>
        <Style id="119">
            <IconStyle id="120">
                <colorMode>normal</colorMode>
                <scale>1</scale>
                <heading>0</heading>
                <Icon id="121">
                    <href>http://maps.google.com/mapfiles/kml/paddle/ltblu-circle.png</href>
                </Icon>
            </IconStyle>
        </Style>
        <Style id="124">
            <IconStyle id="125">
                <colorMode>normal</colorMode>
                <scale>1</scale>
                <heading>0</heading>
                <Icon id="126">
                    <href>http://maps.google.com/mapfiles/kml/paddle/ltblu-circle.png</href>
                </Icon>
            </IconStyle>
        </Style>
        <Style id="129">
            <IconStyle id="130">
                <colorMode>normal</colorMode>
                <scale>1</scale>
                <heading>0</heading>
                <Icon id="131">
                    <href>http://maps.google.com/mapfiles/kml/paddle/ltblu-circle.png</href>
                </Icon>
            </IconStyle>
        </Style>
        <Style id="134">
            <IconStyle id="135">
                <colorMode>normal</colorMode>
                <scale>1</scale>
                <heading>0</heading>
                <Icon id="136">
                    <href>http://maps.google.com/mapfiles/kml/paddle/ltblu-circle.png</href>
                </Icon>
            </IconStyle>
        </Style>
        <Style id="139">
            <IconStyle id="140">
                <colorMode>normal</colorMode>
                <scale>1</scale>
                <heading>0</heading>
                <Icon id="141">
                    <href>http://maps.google.com/mapfiles/kml/paddle/ltblu-circle.png</href>
                </Icon>
            </IconStyle>
        </Style>
        <Style id="144">
            <IconStyle id="145">
                <colorMode>normal</colorMode>
                <scale>1</scale>
                <heading>0</heading>
                <Icon id="146">
                    <href>http://maps.google.com/mapfiles/kml/paddle/ltblu-circle.png</href>
                </Icon>
            </IconStyle>
        </Style>
        <Style id="149">
            <IconStyle id="150">
                <colorMode>normal</colorMode>
                <scale>1</scale>
                <heading>0</heading>
                <Icon id="151">
                    <href>http://maps.google.com/mapfiles/kml/paddle/ltblu-circle.png</href>
                </Icon>
            </IconStyle>
        </Style>
        <Style id="154">
            <IconStyle id="155">
                <colorMode>normal</colorMode>
                <scale>1</scale>
                <heading>0</heading>
                <Icon id="156">
                    <href>http://maps.google.com/mapfiles/kml/paddle/ltblu-circle.png</href>
                </Icon>
            </IconStyle>
        </Style>
        <Placemark id="3">
            <name>SITE1</name>
            <styleUrl>#4</styleUrl>
            <Point id="2">
                <coordinates>-0.2512,43.7064,81.0</coordinates>
                <extrude>1</extrude>
                <altitudeMode>absolute</altitudeMode>
            </Point>
        </Placemark>
        <Placemark id="8">
            <name>SITE2</name>
            <styleUrl>#9</styleUrl>
            <Point id="7">
                <coordinates>0.187648,43.866949,128.0</coordinates>
                <extrude>1</extrude>
                <altitudeMode>absolute</altitudeMode>
            </Point>
        </Placemark>
        <Placemark id="13">
            <name>SITE3</name>
            <styleUrl>#14</styleUrl>
            <Point id="12">
                <coordinates>0.087312,43.414642,203.0</coordinates>
                <extrude>1</extrude>
                <altitudeMode>absolute</altitudeMode>
            </Point>
        </Placemark>
        <Placemark id="18">
            <name>SITE4</name>
            <styleUrl>#19</styleUrl>
            <Point id="17">
                <coordinates>-0.373585,43.256337,242.0</coordinates>
                <extrude>1</extrude>
                <altitudeMode>absolute</altitudeMode>
            </Point>
        </Placemark>
        <Placemark id="23">
            <name>SITE5</name>
            <styleUrl>#24</styleUrl>
            <Point id="22">
                <coordinates>-0.653815,43.502658,113.0</coordinates>
                <extrude>1</extrude>
                <altitudeMode>absolute</altitudeMode>
            </Point>
        </Placemark>
        <Placemark id="28">
            <name>SITE6</name>
            <styleUrl>#29</styleUrl>
            <Point id="27">
                <coordinates>-0.636057,43.895444,52.0</coordinates>
                <extrude>1</extrude>
                <altitudeMode>absolute</altitudeMode>
            </Point>
        </Placemark>
        <Placemark id="33">
            <name>SITE7</name>
            <styleUrl>#34</styleUrl>
            <Point id="32">
                <coordinates>-0.045743,44.098519,154.0</coordinates>
                <extrude>1</extrude>
                <altitudeMode>absolute</altitudeMode>
            </Point>
        </Placemark>
        <Placemark id="38">
            <name>SITE8</name>
            <styleUrl>#39</styleUrl>
            <Point id="37">
                <coordinates>-1.400581,43.745456,7.0</coordinates>
                <extrude>1</extrude>
                <altitudeMode>absolute</altitudeMode>
            </Point>
        </Placemark>
        <Placemark id="43">
            <name>SITE9</name>
            <styleUrl>#44</styleUrl>
            <Point id="42">
                <coordinates>-1.0427,43.261983,124.0</coordinates>
                <extrude>1</extrude>
                <altitudeMode>absolute</altitudeMode>
            </Point>
        </Placemark>
        <Placemark id="48">
            <name>SITE10</name>
            <styleUrl>#49</styleUrl>
            <Point id="47">
                <coordinates>-1.282882,44.188074,8.0</coordinates>
                <extrude>1</extrude>
                <altitudeMode>absolute</altitudeMode>
            </Point>
        </Placemark>
        <Placemark id="53">
            <name>SITE11</name>
            <styleUrl>#54</styleUrl>
            <Point id="52">
                <coordinates>-0.284849,44.480589,80.0</coordinates>
                <extrude>1</extrude>
                <altitudeMode>absolute</altitudeMode>
            </Point>
        </Placemark>
        <Placemark id="58">
            <name>SITE12</name>
            <styleUrl>#59</styleUrl>
            <Point id="57">
                <coordinates>-1.718597,43.336555,274.0</coordinates>
                <extrude>1</extrude>
                <altitudeMode>absolute</altitudeMode>
            </Point>
        </Placemark>
        <Placemark id="63">
            <name>SITE13</name>
            <styleUrl>#64</styleUrl>
            <Point id="62">
                <coordinates>-1.442333,43.066402,710.0</coordinates>
                <extrude>1</extrude>
                <altitudeMode>absolute</altitudeMode>
            </Point>
        </Placemark>
        <Placemark id="68">
            <name>SITE14</name>
            <styleUrl>#69</styleUrl>
            <Point id="67">
                <coordinates>-0.563502,42.818854,1090.0</coordinates>
                <extrude>1</extrude>
                <altitudeMode>absolute</altitudeMode>
            </Point>
        </Placemark>
        <Placemark id="73">
            <name>SITE15</name>
            <styleUrl>#74</styleUrl>
            <Point id="72">
                <coordinates>0.352444,43.143043,570.0</coordinates>
                <extrude>1</extrude>
                <altitudeMode>absolute</altitudeMode>
            </Point>
        </Placemark>
        <Placemark id="78">
            <name>SITE16</name>
            <styleUrl>#79</styleUrl>
            <Point id="77">
                <coordinates>0.406729,42.815806,938.0</coordinates>
                <extrude>1</extrude>
                <altitudeMode>absolute</altitudeMode>
            </Point>
        </Placemark>
        <Placemark id="83">
            <name>SITE17</name>
            <styleUrl>#84</styleUrl>
            <Point id="82">
                <coordinates>0.68047,43.630342,220.0</coordinates>
                <extrude>1</extrude>
                <altitudeMode>absolute</altitudeMode>
            </Point>
        </Placemark>
        <Placemark id="88">
            <name>SITE18</name>
            <styleUrl>#89</styleUrl>
            <Point id="87">
                <coordinates>0.556231,44.15248,82.0</coordinates>
                <extrude>1</extrude>
                <altitudeMode>absolute</altitudeMode>
            </Point>
        </Placemark>
        <Placemark id="93">
            <name>SITE19</name>
            <styleUrl>#94</styleUrl>
            <Point id="92">
                <coordinates>1.216618,43.38539,206.0</coordinates>
                <extrude>1</extrude>
                <altitudeMode>absolute</altitudeMode>
            </Point>
        </Placemark>
        <Placemark id="98">
            <name>SITE20</name>
            <styleUrl>#99</styleUrl>
            <Point id="97">
                <coordinates>2.003062,42.849729,873.0</coordinates>
                <extrude>1</extrude>
                <altitudeMode>absolute</altitudeMode>
            </Point>
        </Placemark>
        <Placemark id="103">
            <name>SITE21</name>
            <styleUrl>#104</styleUrl>
            <Point id="102">
                <coordinates>1.239858,42.98787,464.0</coordinates>
                <extrude>1</extrude>
                <altitudeMode>absolute</altitudeMode>
            </Point>
        </Placemark>
        <Placemark id="108">
            <name>SITE22</name>
            <styleUrl>#109</styleUrl>
            <Point id="107">
                <coordinates>2.866718,42.958792,223.0</coordinates>
                <extrude>1</extrude>
                <altitudeMode>absolute</altitudeMode>
            </Point>
        </Placemark>
        <Placemark id="113">
            <name>SITE23</name>
            <styleUrl>#114</styleUrl>
            <Point id="112">
                <coordinates>1.08266,43.958043,169.0</coordinates>
                <extrude>1</extrude>
                <altitudeMode>absolute</altitudeMode>
            </Point>
        </Placemark>
        <Placemark id="118">
            <name>SITE24</name>
            <styleUrl>#119</styleUrl>
            <Point id="117">
                <coordinates>1.691755,43.732933,190.0</coordinates>
                <extrude>1</extrude>
                <altitudeMode>absolute</altitudeMode>
            </Point>
        </Placemark>
        <Placemark id="123">
            <name>SITE25</name>
            <styleUrl>#124</styleUrl>
            <Point id="122">
                <coordinates>1.697244,43.381282,225.0</coordinates>
                <extrude>1</extrude>
                <altitudeMode>absolute</altitudeMode>
            </Point>
        </Placemark>
        <Placemark id="128">
            <name>SITE26</name>
            <styleUrl>#129</styleUrl>
            <Point id="127">
                <coordinates>1.161097446,49.2261463,25.0</coordinates>
                <extrude>1</extrude>
                <altitudeMode>absolute</altitudeMode>
            </Point>
        </Placemark>
        <Placemark id="133">
            <name>SITE27</name>
            <styleUrl>#134</styleUrl>
            <Point id="132">
                <coordinates>-6.607722,38.9099722,603.0</coordinates>
                <extrude>1</extrude>
                <altitudeMode>absolute</altitudeMode>
            </Point>
        </Placemark>
        <Placemark id="138">
            <name>SITE28</name>
            <styleUrl>#139</styleUrl>
            <Point id="137">
                <coordinates>-5.868905,38.864276,753.0</coordinates>
                <extrude>1</extrude>
                <altitudeMode>absolute</altitudeMode>
            </Point>
        </Placemark>
        <Placemark id="143">
            <name>SITE29</name>
            <styleUrl>#144</styleUrl>
            <Point id="142">
                <coordinates>-0.003567,43.6422,123.0</coordinates>
                <extrude>1</extrude>
                <altitudeMode>absolute</altitudeMode>
            </Point>
        </Placemark>
        <Placemark id="148">
            <name>SITE30</name>
            <styleUrl>#149</styleUrl>
            <Point id="147">
                <coordinates>-2.154948,43.618054,1.0</coordinates>
                <extrude>1</extrude>
                <altitudeMode>absolute</altitudeMode>
            </Point>
        </Placemark>
        <Placemark id="153">
            <name>SITE31</name>
            <styleUrl>#154</styleUrl>
            <Point id="152">
                <coordinates>2.4728963,48.81424,30.0</coordinates>
                <extrude>1</extrude>
                <altitudeMode>absolute</altitudeMode>
            </Point>
        </Placemark>
    </Document>
</kml>
